2 dplyr Verbs – Wrangling data with 'tidyverse'
…
filtered_diamonds <- 
diamonds %>%
  filter( ... ) %>%
  select( ... ) %>% 
  mutate( ... )

2.4 select()

select() is probably the simplest verb. It lets you select whole columns from the dataframe, discarding others. This is most useful for working with huge datasets of many columns, or for extracting bits for ease of printing or presentation.

diamonds %>% 
  select(carat, cut)

# A tibble: 53,940 × 2
   carat cut      
   <dbl> <ord>    
 1  0.23 Ideal    
 2  0.21 Premium  
 3  0.23 Good     
 4  0.29 Premium  
 5  0.31 Good     
 6  0.24 Very Good
 7  0.24 Very Good
 8  0.26 Very Good
 9  0.22 Fair     
10  0.23 Very Good
# ℹ 53,930 more rows

Shorthands include the : which lets you choose a range and - which can be read as except so leaves out the columns you state

diamonds %>%
  select(depth:price) 

# A tibble: 53,940 × 3
   depth table price
   <dbl> <dbl> <int>
 1  61.5    55   326
 2  59.8    61   326
 3  56.9    65   327
 4  62.4    58   334
 5  63.3    58   335
 6  62.8    57   336
 7  62.3    57   336
 8  61.9    55   337
 9  65.1    61   337
10  59.4    61   338
# ℹ 53,930 more rows

diamonds %>%
  select( -x, -y, -z)

# A tibble: 53,940 × 7
   carat cut       color clarity depth table price
   <dbl> <ord>     <ord> <ord>   <dbl> <dbl> <int>
 1  0.23 Ideal     E     SI2      61.5    55   326
 2  0.21 Premium   E     SI1      59.8    61   326
 3  0.23 Good      E     VS1      56.9    65   327
 4  0.29 Premium   I     VS2      62.4    58   334
 5  0.31 Good      J     SI2      63.3    58   335
 6  0.24 Very Good J     VVS2     62.8    57   336
 7  0.24 Very Good I     VVS1     62.3    57   336
 8  0.26 Very Good H     SI1      61.9    55   337
 9  0.22 Fair      E     VS2      65.1    61   337
10  0.23 Very Good H     VS1      59.4    61   338
# ℹ 53,930 more rows
…
starts_with()

ends_with()

contains()

num_range()

Here are examples.

diamonds %>%
  select( starts_with("c"))

# A tibble: 53,940 × 4
   carat cut       color clarity
   <dbl> <ord>     <ord> <ord>  
 1  0.23 Ideal     E     SI2    
 2  0.21 Premium   E     SI1    
 3  0.23 Good      E     VS1    
 4  0.29 Premium   I     VS2    
 5  0.31 Good      J     SI2    
 6  0.24 Very Good J     VVS2   
 7  0.24 Very Good I     VVS1   
 8  0.26 Very Good H     SI1    
 9  0.22 Fair      E     VS2    
10  0.23 Very Good H     VS1    
# ℹ 53,930 more rows

diamonds %>%
  select( ends_with("e")) 

# A tibble: 53,940 × 2
   table price
   <dbl> <int>
 1    55   326
 2    61   326
 3    65   327
 4    58   334
 5    58   335
 6    57   336
 7    57   336
 8    55   337
 9    61   337
10    61   338
# ℹ 53,930 more rows

diamonds %>%
  select( contains("l"))

# A tibble: 53,940 × 3
   color clarity table
   <ord> <ord>   <dbl>
 1 E     SI2        55
 2 E     SI1        61
 3 E     VS1        65
 4 I     VS2        58
 5 J     SI2        58
 6 J     VVS2       57
 7 I     VVS1       57
 8 H     SI1        55
 9 E     VS2        61
10 H     VS1        61
# ℹ 53,930 more rows

2.4.1 rename()

Often when you’re selecting columns to work on, you’ll need to fix the names - rename() is useful for this. Let’s fix that mis-spelled column

diamonds %>% 
  rename( colour = color)

# A tibble: 53,940 × 10
   carat cut       colour clarity depth table price     x     y     z
   <dbl> <ord>     <ord>  <ord>   <dbl> <dbl> <int> <dbl> <dbl> <dbl>
 1  0.23 Ideal     E      SI2      61.5    55   326  3.95  3.98  2.43
 2  0.21 Premium   E      SI1      59.8    61   326  3.89  3.84  2.31
 3  0.23 Good      E      VS1      56.9    65   327  4.05  4.07  2.31
 4  0.29 Premium   I      VS2      62.4    58   334  4.2   4.23  2.63
 5  0.31 Good      J      SI2      63.3    58   335  4.34  4.35  2.75
 6  0.24 Very Good J      VVS2     62.8    57   336  3.94  3.96  2.48
 7  0.24 Very Good I      VVS1     62.3    57   336  3.95  3.98  2.47
 8  0.26 Very Good H      SI1      61.9    55   337  4.07  4.11  2.53
 9  0.22 Fair      E      VS2      65.1    61   337  3.87  3.78  2.49
10  0.23 Very Good H      VS1      59.4    61   338  4     4.05  2.39
# ℹ 53,930 more rows

2.5 filter()

The filter() function lets you select rows (observations) from your data frame based on criteria you specify. Here I’ll look for all rows with a value of G for the color variable (I’ll also pipe the output to the head() function to view just the top of the output.)

diamonds %>%
  filter( color == "G")

# A tibble: 11,292 × 10
   carat cut       color clarity depth table price     x     y     z
   <dbl> <ord>     <ord> <ord>   <dbl> <dbl> <int> <dbl> <dbl> <dbl>
 1  0.23 Very Good G     VVS2     60.4    58   354  3.97  4.01  2.41
 2  0.23 Ideal     G     VS1      61.9    54   404  3.93  3.95  2.44
 3  0.28 Ideal     G     VVS2     61.4    56   553  4.19  4.22  2.58
 4  0.31 Very Good G     SI1      63.3    57   553  4.33  4.3   2.73
 5  0.31 Premium   G     SI1      61.8    58   553  4.35  4.32  2.68
 6  0.24 Premium   G     VVS1     62.3    59   554  3.95  3.92  2.45
 7  0.7  Ideal     G     VS2      61.6    56  2757  5.7   5.67  3.5 
 8  0.78 Very Good G     SI2      63.8    56  2759  5.81  5.85  3.72
 9  0.74 Ideal     G     SI1      61.6    55  2760  5.8   5.85  3.59
10  0.75 Premium   G     VS2      61.7    58  2760  5.85  5.79  3.59
# ℹ 11,282 more rows

The syntax is fairly clear, just pass the column you want to think about and the condition to keep the rows. Multiple conditions can be used and all must be true to keep a row.

diamonds %>%
  filter( color == "G", 
          cut == "Ideal" )

# A tibble: 4,884 × 10
   carat cut   color clarity depth table price     x     y     z
   <dbl> <ord> <ord> <ord>   <dbl> <dbl> <int> <dbl> <dbl> <dbl>
 1  0.23 Ideal G     VS1      61.9    54   404  3.93  3.95  2.44
 2  0.28 Ideal G     VVS2     61.4    56   553  4.19  4.22  2.58
 3  0.7  Ideal G     VS2      61.6    56  2757  5.7   5.67  3.5 
 4  0.74 Ideal G     SI1      61.6    55  2760  5.8   5.85  3.59
 5  0.75 Ideal G     SI1      62.2    55  2760  5.87  5.8   3.63
 6  0.71 Ideal G     VS2      62.4    54  2762  5.72  5.76  3.58
 7  0.64 Ideal G     VVS1     61.9    56  2766  5.53  5.56  3.43
 8  0.71 Ideal G     VS2      61.9    57  2771  5.73  5.77  3.56
 9  0.58 Ideal G     VVS1     61.5    55  2772  5.39  5.44  3.33
10  0.72 Ideal G     SI1      61.8    56  2776  5.72  5.75  3.55
# ℹ 4,874 more rows
…
This statement is asking ‘is 1 divided by 49, multiplied by 49, equal to 1’. The computer says FALSE because the computer can’t store infinite numbers of decimal places. The rounding error is extremely small (down to the last 16th decimal place) but it is there. To deal with this rounding error we use the near() function, which checks numbers are the same to about the 8th decimal place.

near( (1 / 49) * 49, 1)

[1] TRUE

2.5.2 Logical operators

filter() uses combinations of R logical operators, these are & for and, | for or and ! for not. You can build filters with these. Let’s modify our query to find color G or cut ideal.

diamonds %>%
  filter( color == "G" | cut == "Ideal" )

# A tibble: 27,959 × 10
   carat cut       color clarity depth table price     x     y     z
   <dbl> <ord>     <ord> <ord>   <dbl> <dbl> <int> <dbl> <dbl> <dbl>
 1  0.23 Ideal     E     SI2      61.5    55   326  3.95  3.98  2.43
 2  0.23 Ideal     J     VS1      62.8    56   340  3.93  3.9   2.46
 3  0.31 Ideal     J     SI2      62.2    54   344  4.35  4.37  2.71
 4  0.3  Ideal     I     SI2      62      54   348  4.31  4.34  2.68
 5  0.23 Very Good G     VVS2     60.4    58   354  3.97  4.01  2.41
 6  0.33 Ideal     I     SI2      61.8    55   403  4.49  4.51  2.78
 7  0.33 Ideal     I     SI2      61.2    56   403  4.49  4.5   2.75
 8  0.33 Ideal     J     SI1      61.1    56   403  4.49  4.55  2.76
 9  0.23 Ideal     G     VS1      61.9    54   404  3.93  3.95  2.44
10  0.32 Ideal     I     SI1      60.9    55   404  4.45  4.48  2.72
# ℹ 27,949 more rows

Note that the computer doesn’t read this like it’s English. Consider this

diamonds %>%
  filter( color == "G" | "F")

You might consider this to read filter rows with color column equal toGorF`. The computer doesn’t read it like this. It needs more explicit statements

diamonds %>%
  filter( color == "G" | color == "F")

# A tibble: 20,834 × 10
   carat cut       color clarity depth table price     x     y     z
   <dbl> <ord>     <ord> <ord>   <dbl> <dbl> <int> <dbl> <dbl> <dbl>
 1  0.22 Premium   F     SI1      60.4    61   342  3.88  3.84  2.33
 2  0.23 Very Good G     VVS2     60.4    58   354  3.97  4.01  2.41
 3  0.23 Very Good F     VS1      60.9    57   357  3.96  3.99  2.42
 4  0.23 Very Good F     VS1      60      57   402  4     4.03  2.41
 5  0.23 Very Good F     VS1      59.8    57   402  4.04  4.06  2.42
 6  0.23 Good      F     VS1      58.2    59   402  4.06  4.08  2.37
 7  0.29 Premium   F     SI1      62.4    58   403  4.24  4.26  2.65
 8  0.24 Very Good F     SI1      60.9    61   404  4.02  4.03  2.45
 9  0.23 Ideal     G     VS1      61.9    54   404  3.93  3.95  2.44
10  0.28 Ideal     G     VVS2     61.4    56   553  4.19  4.22  2.58
# ℹ 20,824 more rows

Which can be cumbersome if you want to filter on one of many possible values. For that reason we have %in% , which works like

diamonds %>%
  filter( color  %in% c("G", "F") )

# A tibble: 20,834 × 10
   carat cut       color clarity depth table price     x     y     z
   <dbl> <ord>     <ord> <ord>   <dbl> <dbl> <int> <dbl> <dbl> <dbl>
 1  0.22 Premium   F     SI1      60.4    61   342  3.88  3.84  2.33
 2  0.23 Very Good G     VVS2     60.4    58   354  3.97  4.01  2.41
 3  0.23 Very Good F     VS1      60.9    57   357  3.96  3.99  2.42
 4  0.23 Very Good F     VS1      60      57   402  4     4.03  2.41
 5  0.23 Very Good F     VS1      59.8    57   402  4.04  4.06  2.42
 6  0.23 Good      F     VS1      58.2    59   402  4.06  4.08  2.37
 7  0.29 Premium   F     SI1      62.4    58   403  4.24  4.26  2.65
 8  0.24 Very Good F     SI1      60.9    61   404  4.02  4.03  2.45
 9  0.23 Ideal     G     VS1      61.9    54   404  3.93  3.95  2.44
10  0.28 Ideal     G     VVS2     61.4    56   553  4.19  4.22  2.58
# ℹ 20,824 more rows

You can select anything not in a list given to %in% with a judicious ! (not), again this is a bit weird if you translate directly from English, as the not goes first.

diamonds %>%
  filter( ! color %in% c("G", "F") )

# A tibble: 33,106 × 10
   carat cut       color clarity depth table price     x     y     z
   <dbl> <ord>     <ord> <ord>   <dbl> <dbl> <int> <dbl> <dbl> <dbl>
 1  0.23 Ideal     E     SI2      61.5    55   326  3.95  3.98  2.43
 2  0.21 Premium   E     SI1      59.8    61   326  3.89  3.84  2.31
 3  0.23 Good      E     VS1      56.9    65   327  4.05  4.07  2.31
 4  0.29 Premium   I     VS2      62.4    58   334  4.2   4.23  2.63
 5  0.31 Good      J     SI2      63.3    58   335  4.34  4.35  2.75
 6  0.24 Very Good J     VVS2     62.8    57   336  3.94  3.96  2.48
 7  0.24 Very Good I     VVS1     62.3    57   336  3.95  3.98  2.47
 8  0.26 Very Good H     SI1      61.9    55   337  4.07  4.11  2.53
 9  0.22 Fair      E     VS2      65.1    61   337  3.87  3.78  2.49
10  0.23 Very Good H     VS1      59.4    61   338  4     4.05  2.39
# ℹ 33,096 more rows

2.6 mutate()

The mutate() function lets you add new columns based on values in other columns. Note that doing so to this data set makes it too big to print, so I’ll select() the appropriate columns.

diamonds %>%
  mutate(price_per_carat = price / carat) %>%
  select(price, carat, price_per_carat)

# A tibble: 53,940 × 3
   price carat price_per_carat
   <int> <dbl>           <dbl>
 1   326  0.23           1417.
 2   326  0.21           1552.
 3   327  0.23           1422.
 4   334  0.29           1152.
 5   335  0.31           1081.
 6   336  0.24           1400 
 7   336  0.24           1400 
 8   337  0.26           1296.
 9   337  0.22           1532.
10   338  0.23           1470.
# ℹ 53,930 more rows

You can refer to columns straight after creating them, so you can minimise mutate()s

diamonds %>%
  mutate(price_per_carat = price / carat,
         depth_per_ppc = depth / price_per_carat) %>%
  select(depth_per_ppc, price_per_carat) 

# A tibble: 53,940 × 2
   depth_per_ppc price_per_carat
           <dbl>           <dbl>
 1        0.0434           1417.
 2        0.0385           1552.
 3        0.0400           1422.
 4        0.0542           1152.
 5        0.0586           1081.
 6        0.0449           1400 
 7        0.0445           1400 
 8        0.0478           1296.
 9        0.0425           1532.
10        0.0404           1470.
# ℹ 53,930 more rows

2.6.1 Functions in mutate()

You can create a new column with mutate() using pretty much any vectorized R function. It’s a bit complicated to explain what I mean by ‘vectorized’ so let’s start with some examples.

diamonds %>% 
  mutate(log_price = log(price)) %>%
  select(-x, -y, -z) 

# A tibble: 53,940 × 8
   carat cut       color clarity depth table price log_price
   <dbl> <ord>     <ord> <ord>   <dbl> <dbl> <int>     <dbl>
 1  0.23 Ideal     E     SI2      61.5    55   326      5.79
 2  0.21 Premium   E     SI1      59.8    61   326      5.79
 3  0.23 Good      E     VS1      56.9    65   327      5.79
 4  0.29 Premium   I     VS2      62.4    58   334      5.81
 5  0.31 Good      J     SI2      63.3    58   335      5.81
 6  0.24 Very Good J     VVS2     62.8    57   336      5.82
 7  0.24 Very Good I     VVS1     62.3    57   336      5.82
 8  0.26 Very Good H     SI1      61.9    55   337      5.82
 9  0.22 Fair      E     VS2      65.1    61   337      5.82
10  0.23 Very Good H     VS1      59.4    61   338      5.82
# ℹ 53,930 more rows

diamonds %>%
  mutate( total_price = sum(price)) %>%
  select( -x, -y, -z) 

# A tibble: 53,940 × 8
   carat cut       color clarity depth table price total_price
   <dbl> <ord>     <ord> <ord>   <dbl> <dbl> <int>       <int>
 1  0.23 Ideal     E     SI2      61.5    55   326   212135217
 2  0.21 Premium   E     SI1      59.8    61   326   212135217
 3  0.23 Good      E     VS1      56.9    65   327   212135217
 4  0.29 Premium   I     VS2      62.4    58   334   212135217
 5  0.31 Good      J     SI2      63.3    58   335   212135217
 6  0.24 Very Good J     VVS2     62.8    57   336   212135217
 7  0.24 Very Good I     VVS1     62.3    57   336   212135217
 8  0.26 Very Good H     SI1      61.9    55   337   212135217
 9  0.22 Fair      E     VS2      65.1    61   337   212135217
10  0.23 Very Good H     VS1      59.4    61   338   212135217
# ℹ 53,930 more rows
…
[1] 6

So you get back a single number. The behaviour of mutate() then is akin to taking the whole column or columns you specify, apply whatever function you ask for and putting the resulting column in the dataframe. If the resulting column is of length one, that just gets repeated until it fits. That is why we get repeats of the same number in the sum() example and why that number is the sum of all the prices.

If the result from the function isn’t the same length as the column or has length of one - the function will fail. Most common functions will work nicely though.

2.6.2 if_else()

One final vectorized function is if_else(), this is useful when you want to add a column that annotates the data with an arbitrary value based on values. Let’s add a column called cost that can be high or low depending on the price.

diamonds %>%
  mutate( cost = if_else( price > 335, "high", "low")) %>%
  select( -x, -y, -z)

# A tibble: 53,940 × 8
   carat cut       color clarity depth table price cost 
   <dbl> <ord>     <ord> <ord>   <dbl> <dbl> <int> <chr>
 1  0.23 Ideal     E     SI2      61.5    55   326 low  
 2  0.21 Premium   E     SI1      59.8    61   326 low  
 3  0.23 Good      E     VS1      56.9    65   327 low  
 4  0.29 Premium   I     VS2      62.4    58   334 low  
 5  0.31 Good      J     SI2      63.3    58   335 low  
 6  0.24 Very Good J     VVS2     62.8    57   336 high 
 7  0.24 Very Good I     VVS1     62.3    57   336 high 
 8  0.26 Very Good H     SI1      61.9    55   337 high 
 9  0.22 Fair      E     VS2      65.1    61   337 high 
10  0.23 Very Good H     VS1      59.4    61   338 high 
# ℹ 53,930 more rows
…
This is where the power of dplyr starts to be obvious. Once we’ve got our dataframe into shape with the select(), filter() and mutate() functions, we can start to compute new information with group_by() and summarize() and some of the helper functions.

Let’s group by two things, color and cut, and get the mean and standard deviation of price.

diamonds %>%
  group_by(color, cut) %>%
  summarize( 
    mean_price = mean(price),
    sd = sd(price)
    )

`summarise()` has grouped output by 'color'. You can override using the
`.groups` argument.

# A tibble: 35 × 4
# Groups:   color [7]
   color cut       mean_price    sd
   <ord> <ord>          <dbl> <dbl>
 1 D     Fair           4291. 3286.
 2 D     Good           3405. 3175.
 3 D     Very Good      3470. 3524.
 4 D     Premium        3631. 3712.
 5 D     Ideal          2629. 3001.
 6 E     Fair           3682. 2977.
 7 E     Good           3424. 3331.
 8 E     Very Good      3215. 3408.
 9 E     Premium        3539. 3795.
10 E     Ideal          2598. 2956.
# ℹ 25 more rows
…
median() - median value in a column

IQR() - interquartile range (distance) between 25th and 75th percentile

first() or last() - first or last values in a column

2.8 arrange()

The arrange() function is a straightforward function that helps you arrange the final table from summarize() a bit more nicely. It simply orders the rows in a way that you specify.

diamonds %>% 
  arrange(price)

# A tibble: 53,940 × 10
   carat cut       color clarity depth table price     x     y     z
   <dbl> <ord>     <ord> <ord>   <dbl> <dbl> <int> <dbl> <dbl> <dbl>
 1  0.23 Ideal     E     SI2      61.5    55   326  3.95  3.98  2.43
 2  0.21 Premium   E     SI1      59.8    61   326  3.89  3.84  2.31
 3  0.23 Good      E     VS1      56.9    65   327  4.05  4.07  2.31
 4  0.29 Premium   I     VS2      62.4    58   334  4.2   4.23  2.63
 5  0.31 Good      J     SI2      63.3    58   335  4.34  4.35  2.75
 6  0.24 Very Good J     VVS2     62.8    57   336  3.94  3.96  2.48
 7  0.24 Very Good I     VVS1     62.3    57   336  3.95  3.98  2.47
 8  0.26 Very Good H     SI1      61.9    55   337  4.07  4.11  2.53
 9  0.22 Fair      E     VS2      65.1    61   337  3.87  3.78  2.49
10  0.23 Very Good H     VS1      59.4    61   338  4     4.05  2.39
# ℹ 53,930 more rows

To sort biggest first, use desc()

diamonds %>% 
  arrange(desc(price)) 

# A tibble: 53,940 × 10
   carat cut       color clarity depth table price     x     y     z
   <dbl> <ord>     <ord> <ord>   <dbl> <dbl> <int> <dbl> <dbl> <dbl>
 1  2.29 Premium   I     VS2      60.8    60 18823  8.5   8.47  5.16
 2  2    Very Good G     SI1      63.5    56 18818  7.9   7.97  5.04
 3  1.51 Ideal     G     IF       61.7    55 18806  7.37  7.41  4.56
 4  2.07 Ideal     G     SI2      62.5    55 18804  8.2   8.13  5.11
 5  2    Very Good H     SI1      62.8    57 18803  7.95  8     5.01
 6  2.29 Premium   I     SI1      61.8    59 18797  8.52  8.45  5.24
 7  2.04 Premium   H     SI1      58.1    60 18795  8.37  8.28  4.84
 8  2    Premium   I     VS1      60.8    59 18795  8.13  8.02  4.91
 9  1.71 Premium   F     VS2      62.3    59 18791  7.57  7.53  4.7 
10  2.15 Ideal     G     SI2      62.6    54 18791  8.29  8.35  5.21
# ℹ 53,930 more rows
…
