Using dplyr for data analysis
…
sum(c(1,2,3))

## [1] 6

So you get back a single number. The behaviour of mutate() then is akin to taking the whole column or columns you specify, apply whatever function you ask for and putting the resulting column in the dataframe. If the resulting column is too short, it just gets repeated until it fits. That is why we get repeats of the same number in the sum() example and why that number is the sum of all the prices.

5.6.2 if_else()

One final vectorized function is if_else(), this is useful when you want to add a column that annotates the data with an arbitrary value based on values. Let’s add a column called cost that can be high or low depending on the price.

diamonds %>%
  mutate( cost = if_else( price > 335, "high", "low")) %>%
  select( -x, -y, -z)

## # A tibble: 53,940 x 8
##    carat cut       color clarity depth table price cost 
##    <dbl> <ord>     <ord> <ord>   <dbl> <dbl> <int> <chr>
##  1 0.23  Ideal     E     SI2      61.5    55   326 low  
##  2 0.21  Premium   E     SI1      59.8    61   326 low  
##  3 0.23  Good      E     VS1      56.9    65   327 low  
##  4 0.290 Premium   I     VS2      62.4    58   334 low  
##  5 0.31  Good      J     SI2      63.3    58   335 low  
##  6 0.24  Very Good J     VVS2     62.8    57   336 high 
##  7 0.24  Very Good I     VVS1     62.3    57   336 high 
##  8 0.26  Very Good H     SI1      61.9    55   337 high 
##  9 0.22  Fair      E     VS2      65.1    61   337 high 
## 10 0.23  Very Good H     VS1      59.4    61   338 high 
## # ... with 53,930 more rows
…
This is where the power of dplyr starts to be obvious. Once we’ve got our dataframe into shape with the select(), filter() and mutate() functions, we can start to compute new information with group_by() and summarize() and some of the helper functions.

Let’s group by two things, color and cut, and get the mean and standard deviation of price.

diamonds %>%
  group_by(color, cut) %>%
  summarize( 
    mean_price = mean(price),
    sd = sd(price)
    )

## # A tibble: 35 x 4
## # Groups:   color [?]
##    color cut       mean_price    sd
##    <ord> <ord>          <dbl> <dbl>
##  1 D     Fair           4291. 3286.
##  2 D     Good           3405. 3175.
##  3 D     Very Good      3470. 3524.
##  4 D     Premium        3631. 3712.
##  5 D     Ideal          2629. 3001.
##  6 E     Fair           3682. 2977.
##  7 E     Good           3424. 3331.
##  8 E     Very Good      3215. 3408.
##  9 E     Premium        3539. 3795.
## 10 E     Ideal          2598. 2956.
## # ... with 25 more rows
…
